{
  "data": "Obama visited Facebook headquarters: http://bit.ly/xyz @elversatile",
  "metadata": [
    {
      "begin": "14",
      "end": "22",
      "type": "entity"
    },
    {
      "begin": "0",
      "end": "5",
      "type": "entity"
    },
    {
      "begin": "56",
      "end": "67",
      "type": "twitter_username"
    },
    {
      "begin": "37",
      "end": "54",
      "type": "link"
    }
  ]
}